<?xml version="1.0" encoding="UTF-8" standalone="no"?>
<!-- Created with Inkscape (http://www.inkscape.org/) -->

<svg
   xmlns:dc="http://purl.org/dc/elements/1.1/"
   xmlns:cc="http://creativecommons.org/ns#"
   xmlns:rdf="http://www.w3.org/1999/02/22-rdf-syntax-ns#"
   xmlns:svg="http://www.w3.org/2000/svg"
   xmlns="http://www.w3.org/2000/svg"
   xmlns:sodipodi="http://sodipodi.sourceforge.net/DTD/sodipodi-0.dtd"
   xmlns:inkscape="http://www.inkscape.org/namespaces/inkscape"
   width="16"
   height="16"
   viewBox="0 0 4.2333332 4.2333335"
   version="1.1"
   id="svg8"
   inkscape:version="0.92.3 (2405546, 2018-03-11)"
   sodipodi:docname="plane.svg">
  <title
     id="title3775">GNOME Symbolic Icon</title>
  <defs
     id="defs2" />
  <sodipodi:namedview
     id="base"
     pagecolor="#ffffff"
     bordercolor="#666666"
     borderopacity="1.0"
     inkscape:pageopacity="0.0"
     inkscape:pageshadow="2"
     inkscape:zoom="22.627417"
     inkscape:cx="9.726214"
     inkscape:cy="7.6104442"
     inkscape:document-units="px"
     inkscape:current-layer="layer1"
     showgrid="true"
     units="px"
     inkscape:window-width="1300"
     inkscape:window-height="934"
     inkscape:window-x="2038"
     inkscape:window-y="291"
     inkscape:window-maximized="0">
    <inkscape:grid
       type="xygrid"
       id="grid3713"
       dotted="false"
       empspacing="4" />
  </sodipodi:namedview>
  <metadata
     id="metadata5">
    <rdf:RDF>
      <cc:Work
         rdf:about="">
        <dc:format>image/svg+xml</dc:format>
        <dc:type
           rdf:resource="http://purl.org/dc/dcmitype/StillImage" />
        <dc:title>GNOME Symbolic Icon</dc:title>
      </cc:Work>
    </rdf:RDF>
  </metadata>
  <g
     inkscape:label="Layer 1"
     inkscape:groupmode="layer"
     id="layer1"
     transform="translate(0,-292.76665)">
    <g
       id="g4794"
       transform="matrix(0.18708867,-0.18708867,0.18708867,0.18708867,-0.86719556,295.31467)"
       style="fill:#77767b">
      <g
         transform="translate(-160.99495,-317.04889)"
         style="display:inline;fill:#77767b"
         inkscape:label="status"
         id="layer9">
        <path
           style="display:inline;fill:#77767b;fill-opacity:1;stroke:none"
           id="rect13090-4-6-0-6"
           d="m 172.44094,319.50764 -5.94469,5.91162 c -1.30094,1.2937 -1.90062,2.80758 -1.34458,3.39435 0.55604,0.58677 2.05101,0.0177 3.35195,-1.27605 l 5.94469,-5.91163 c 1.30093,-1.2937 1.90062,-2.80758 1.34458,-3.39435 -0.55604,-0.58676 -2.05101,-0.0176 -3.35195,1.27606 z"
           inkscape:connector-curvature="0" />
        <path
           style="fill:#77767b;fill-opacity:1;stroke:none"
           sodipodi:nodetypes="ccccccc"
           id="path13094-9-3-5-6"
           d="m 164.03526,319.48221 -1.22853,1.26935 5.92251,4.5004 4.53926,5.96137 1.26935,-1.22853 -2.6399,-7.86269 z"
           inkscape:connector-curvature="0" />
        <path
           style="fill:#77767b;fill-opacity:1;stroke:none"
           sodipodi:nodetypes="ccccccc"
           id="path13100-6-3-1-2"
           d="m 167.29379,326.69897 -4.59545,-0.3431 -0.6983,0.7079 2.84758,2.10861 2.08162,2.84267 0.70221,-0.70329 z"
           inkscape:connector-curvature="0" />
      </g>
      <g
         transform="translate(-160.99495,-317.04889)"
         style="display:inline;fill:#77767b"
         inkscape:label="devices"
         id="layer10" />
      <g
         transform="translate(-160.99495,-317.04889)"
         inkscape:label="apps"
         id="layer11"
         style="fill:#77767b" />
      <g
         transform="translate(-160.99495,-317.04889)"
         style="display:inline;fill:#77767b"
         inkscape:label="places"
         id="layer13" />
      <g
         transform="translate(-160.99495,-317.04889)"
         inkscape:label="mimetypes"
         id="layer14"
         style="fill:#77767b" />
      <g
         transform="translate(-160.99495,-317.04889)"
         style="display:inline;fill:#77767b"
         inkscape:label="emblems"
         id="layer15" />
      <g
         transform="translate(-160.99495,-317.04889)"
         style="display:inline;fill:#77767b"
         inkscape:label="emotes"
         id="g71291" />
      <g
         transform="translate(-160.99495,-317.04889)"
         style="display:inline;fill:#77767b"
         inkscape:label="categories"
         id="g4953" />
      <g
         transform="translate(-160.99495,-317.04889)"
         style="display:inline;fill:#77767b"
         inkscape:label="actions"
         id="layer12" />
    </g>
  </g>
</svg>
