<?xml version="1.0" encoding="UTF-8" standalone="no"?>
<!-- Created with Inkscape (http://www.inkscape.org/) -->

<svg
   xmlns:dc="http://purl.org/dc/elements/1.1/"
   xmlns:cc="http://creativecommons.org/ns#"
   xmlns:rdf="http://www.w3.org/1999/02/22-rdf-syntax-ns#"
   xmlns:svg="http://www.w3.org/2000/svg"
   xmlns="http://www.w3.org/2000/svg"
   xmlns:sodipodi="http://sodipodi.sourceforge.net/DTD/sodipodi-0.dtd"
   xmlns:inkscape="http://www.inkscape.org/namespaces/inkscape"
   width="16"
   height="16"
   viewBox="0 0 4.2333332 4.2333335"
   version="1.1"
   id="svg8"
   inkscape:version="0.92.3 (2405546, 2018-03-11)"
   sodipodi:docname="weather.svg">
  <title
     id="title3775">GNOME Symbolic Icon</title>
  <defs
     id="defs2" />
  <sodipodi:namedview
     id="base"
     pagecolor="#ffffff"
     bordercolor="#666666"
     borderopacity="1.0"
     inkscape:pageopacity="0.0"
     inkscape:pageshadow="2"
     inkscape:zoom="32"
     inkscape:cx="10.900499"
     inkscape:cy="9.6253772"
     inkscape:document-units="px"
     inkscape:current-layer="layer1"
     showgrid="true"
     units="px"
     inkscape:window-width="1300"
     inkscape:window-height="934"
     inkscape:window-x="2038"
     inkscape:window-y="291"
     inkscape:window-maximized="0">
    <inkscape:grid
       type="xygrid"
       id="grid3713"
       dotted="false"
       empspacing="4"
       spacingx="0.26458333"
       spacingy="0.26458333" />
    <inkscape:grid
       type="xygrid"
       id="grid4821"
       dotted="true"
       spacingx="0.066145834"
       spacingy="0.066145834"
       empspacing="2"
       color="#3f3fff"
       opacity="0.94509804" />
  </sodipodi:namedview>
  <metadata
     id="metadata5">
    <rdf:RDF>
      <cc:Work
         rdf:about="">
        <dc:format>image/svg+xml</dc:format>
        <dc:type
           rdf:resource="http://purl.org/dc/dcmitype/StillImage" />
        <dc:title>GNOME Symbolic Icon</dc:title>
      </cc:Work>
    </rdf:RDF>
  </metadata>
  <g
     inkscape:label="Layer 1"
     inkscape:groupmode="layer"
     id="layer1"
     transform="translate(0,-292.76665)">
    <circle
       style="fill:#1c71d8;fill-opacity:1;stroke:none;stroke-width:0.26458332"
       id="path4815"
       cx="2.1166666"
       cy="294.88333"
       r="2.1166666" />
    <path
       style="fill:#ffffff;fill-opacity:1;stroke:none;stroke-width:0.26458332px;stroke-linecap:butt;stroke-linejoin:miter;stroke-opacity:1"
       d="m 0.52916666,293.82498 2e-8,1.98438 0.13633238,0.13633 0.26054263,-0.004 0.26458331,-0.26458 0.1322917,0 0.2645833,0.26458 h 0.2645834 l 0.1322917,-0.13229 0,-1.98438 H 1.5875 v 1.71979 l -0.2645833,-0.26458 -0.1322917,0 -0.26458331,0.26458 v -1.71979 z"
       id="path4817"
       inkscape:connector-curvature="0"
       sodipodi:nodetypes="ccccccccccccccccc" />
    <path
       style="fill:#ffffff;fill-opacity:1;stroke:none;stroke-width:0.26458332px;stroke-linecap:butt;stroke-linejoin:miter;stroke-opacity:1"
       d="m 2.2489584,293.82498 h 0.3968749 l 0.3968751,0.66146 0.3968749,-0.66146 h 0.396875 v 0.13229 l -0.5953124,0.92605 0.5953124,0.92604 v 0.13229 h -0.396875 l -0.396875,-0.66146 -0.396875,0.66146 H 2.2489584 v -0.13229 l 0.5953125,-0.92604 -0.5953125,-0.92605 z"
       id="path4819"
       inkscape:connector-curvature="0"
       sodipodi:nodetypes="ccccccccccccccccc" />
  </g>
</svg>
